{"page":2,"total_results":32,"total_pages":2,"results":[{"vote_count":1,"id":319391,"video":true,"vote_average":10,"title":"J.K. Rowling and the Birth of Harry Potter","popularity":1.037648,"poster_path":"\/hY6Ndq1O4JiEngZ7xIOtcLUCDTX.jpg","original_language":"en","original_title":"J.K. Rowling and the Birth of Harry Potter","genre_ids":[99],"backdrop_path":null,"adult":false,"overview":"In this fascinating (unauthorized) biographical documentary, you'll get the inside scoop on the creative force behind one of the greatest publishing phenomena in the last 100 years -- J.K. Rowling, author of the Harry Potter series of books. Explore Rowling's meteoric rise from obscurity into the ranks of the world's richest women (via her books), and visit the people and places that played a significant role in her life.","release_date":"2004-12-07"},{"vote_count":1,"id":383774,"video":false,"vote_average":5,"title":"Creating the World of Harry Potter, Part 7: Story","popularity":1.044706,"poster_path":"\/mIPcI6VdG2HEQi6JMR6tYATjwUM.jpg","original_language":"en","original_title":"Creating the World of Harry Potter, Part 7: Story","genre_ids":[99],"backdrop_path":null,"adult":false,"overview":"Over the course of ten years, screenwriter Steve Kloves worked tirelessly with author J.K. Rowling to develop her magical books into films. From the beginning, Kloves had to decide what to keep, what to change and what to cut while staying true to Rowling's vision, initially without even knowing how the series ended! Learn the story behind the stories as they sit down together for an intimate, free-flowing conversation.","release_date":"2012-11-13"},{"vote_count":1,"id":383770,"video":false,"vote_average":7,"title":"Creating the World of Harry Potter, Part 3: Creatures","popularity":1.044339,"poster_path":"\/oIDCV9OJDPrGRhXD0KyF6JjVvK8.jpg","original_language":"en","original_title":"Creating the World of Harry Potter, Part 3: Creatures","genre_ids":[99],"backdrop_path":null,"adult":false,"overview":"Soar on the back of Buckbeak. Battle a Hungarian Horntail. Trace Voldemort’s terrifying transformation from grotesque infant-like creature to Dark Lord. Fascinating footage lets you experience the Harry Potter world of creatures through new eyes with this revealing look at a new group of wizards: the artists who create the monsters and marvels. Roam the Creature Shop, where actors turn into beasts and sketches turn into animatronic wonders. Join Daniel Radcliffe, Rupert Grint and Emma Watson as they share stories about acting opposite everything from tiny computer-generated pixies to a four-ton mechanical spider (guess which young star is really afraid of spiders). New discoveries and new revelations all make your journeys into Harry’s world even more thrilling!","release_date":"2010-10-19"},{"vote_count":0,"id":383775,"video":false,"vote_average":0,"title":"Creating the World of Harry Potter, Part 8: Growing Up","popularity":1.013177,"poster_path":"\/Ava9xLPQeW9OrlB5Tplb1c9jcxz.jpg","original_language":"en","original_title":"Creating the World of Harry Potter, Part 8: Growing Up","genre_ids":[99],"backdrop_path":null,"adult":false,"overview":"By the time the final film wrapped, the young stars of Harry Potter had spent nearly half their lives on set. In Growing Up, new and vintage interviews show how the actors have grown over the course of the series, while behind-the-scenes footage gives an exclusive look at their lives. Watch how their ideas of acting, fame, their characters and themselves have changed. Finally, say farewell to the series with Daniel Radcliffe as he delivers an emotionally charged speech to the cast and crew.","release_date":"2012-11-14"},{"vote_count":0,"id":383773,"video":false,"vote_average":0,"title":"Creating the World of Harry Potter, Part 6: Magical Effects","popularity":1.010665,"poster_path":"\/dyknM2RzO6jI7zYTTza2sNgNEVS.jpg","original_language":"en","original_title":"Creating the World of Harry Potter, Part 6: Magical Effects","genre_ids":[99],"backdrop_path":null,"adult":false,"overview":"In Harry Potter's world, portraits come to life, potions transform, time reverses, Quidditch players soar, dragons attack and magic is everywhere. Explore the moviemaking magic that created the wizardry and wonder of the Harry Potter film series. Now, fascinating insights, interviews and watch-it-happen footage let you experience the triumphs of the technical wizards who conjured up an awe-inspiring alternate reality. Share the fun as Daniel Radcliffe, Rupert Grint and Emma Watson negotiate the moving stairs. Marvel as an oversized water tank transforms into the depths of the black lake for the Triwizard Tournament. Discover which amazing sequence was filmed entirely using computer-generated imagery. Watch as blue and green screen backgrounds transform into towering structures and endless landscapes. You don't know the magic until you've seen Magical Effects.","release_date":"2011-06-14"},{"vote_count":0,"id":383772,"video":false,"vote_average":0,"title":"Creating the World of Harry Potter, Part 5: Evolution","popularity":1.007078,"poster_path":"\/gtzhpjEAaxKw7qVDwxtCPpmDK6J.jpg","original_language":"en","original_title":"Creating the World of Harry Potter, Part 5: Evolution","genre_ids":[99],"backdrop_path":null,"adult":false,"overview":"Deeper. Bolder. Darker. As the eight Harry Potter films trace Harry's journey from innocent schoolboy to selfless hero, the series undergoes a transformation. Evolution - packed with exclusive content - takes you along for every exciting step of the 10-year filmmaking odyssey. Join the four directors and key members of the crew and cast, including Daniel Radcliffe, Rupert Grint and Emma Watson, as they explore how the creative vision for the films evolved to maintain the integrity and increasing intensity of J.K. Rowling's expansive literary series. From the ever-changing architecture of Hogwarts castle and growing landscape of the wizarding world, to the darkening palette of each successive film, to the young actors maturing along with their characters, it is a wondrous and spectacular adventure to experience.","release_date":"2011-06-14"},{"vote_count":0,"id":383769,"video":false,"vote_average":0,"title":"Creating the World of Harry Potter, Part 2: Characters","popularity":1.004988,"poster_path":"\/gGzLMbAXe6p2Ugtj8Ot5Zd0uelX.jpg","original_language":"en","original_title":"Creating the World of Harry Potter, Part 2: Characters","genre_ids":[99],"backdrop_path":null,"adult":false,"overview":"“We really do look at the story and characters first,” producer David Heyman says. “That's the heart and that's the soul of the film.” And that's the heart and soul of this incisive, decade-spanning exploration of how the series' actors bring the beloved Harry Potter characters to life. Discover which parts of the J.K. Rowling books helped Daniel Radcliffe, Rupert Grint, Emma Watson and more stars make their roles leap from page to screen. See screen tests, including Evanna Lynch (Luna Lovegood) and Jessie Cave (Lavender Brown) working with the established stars. Learn why so many of Britain's acting greats wanted to be part of Harry Potter's world...and which ones became mentors to the young stars. Share each director's vision as you watch Daniel, Rupert and Emma grow up with Harry, Ron and Hermione. Your journey into Harry’s world continues.","release_date":"2009-12-08"},{"vote_count":0,"id":441668,"video":false,"vote_average":0,"title":"À la découverte du vrai monde de Harry Potter","popularity":1.003492,"poster_path":"\/2TlFMTWWu0KJNn9LTiYqZD7q5JO.jpg","original_language":"fr","original_title":"À la découverte du vrai monde de Harry Potter","genre_ids":[99],"backdrop_path":null,"adult":false,"overview":"French documentary seeking Harry Potter connections in the real world.","release_date":"2004-12-01"},{"vote_count":0,"id":383771,"video":false,"vote_average":0,"title":"Creating the World of Harry Potter, Part 4: Sound & Music","popularity":1.008235,"poster_path":"\/8JmTOk4tfeuy9zhy3FdVu2l6Ium.jpg","original_language":"en","original_title":"Creating the World of Harry Potter, Part 4: Sound & Music","genre_ids":[99],"backdrop_path":null,"adult":false,"overview":"Can you imagine the Yule Ball without the Potter Waltz? Quidditch without the whoooosh of flying? Or any Harry Potter film without the iconic Hedwig’s Theme? Now, absorbing interviews and behind-the- scenes glimpses let you share the vision of composers, sound experts and others who make the Harry Potter films enchantment for the ears as well as the eyes. Experience sound and music that magnify triumph and fear, joy and suspense while transporting viewers on an emotional journey alongside the on-screen characters. Learn how specially cre- ated musical motifs identify individual characters and places. Watch as Foley artists use unusual techniques to replicate everyday sounds. Discover a whole new way to look at – and listen to – Harry’s world.","release_date":"2010-10-19"},{"vote_count":0,"id":256050,"video":false,"vote_average":0,"title":"The Magical World of Harry Potter: The Unauthorized Story of J.K. Rowling","popularity":1.001884,"poster_path":"\/h1RmO8hZwXgyl0lazwLoPmUT57s.jpg","original_language":"en","original_title":"The Magical World of Harry Potter: The Unauthorized Story of J.K. Rowling","genre_ids":[],"backdrop_path":null,"adult":false,"overview":"The unauthorized story of J.K. Rowling--creator of Harry Potter.","release_date":"2000-08-08"},{"vote_count":7,"id":36619,"video":false,"vote_average":7.7,"title":"J.K. Rowling: A Year in the Life","popularity":1.376565,"poster_path":"\/kL9AYZIW5GXz0AciWPYXBj1fGK0.jpg","original_language":"en","original_title":"J.K. Rowling: A Year in the Life","genre_ids":[99],"backdrop_path":"\/umDZKASNVP67L1Y5gfYKwAdAjM1.jpg","adult":false,"overview":"A look into the life of J.K. Rowling in the year leading to her finishing her final harry potter book.","release_date":"2007-01-01"},{"vote_count":20,"id":54507,"video":true,"vote_average":7.7,"title":"A Very Potter Musical","popularity":2.352876,"poster_path":"\/8GcoqIPxjFqfW2VhG9OcQyftzXC.jpg","original_language":"en","original_title":"A Very Potter Musical","genre_ids":[10402,35],"backdrop_path":"\/gDgCyZhvD2YYT1wohU9NV8NJ9e4.jpg","adult":false,"overview":"In April 2009, a group of University of Michigan students (Team StarKid) performed what was renamed \"A Very Potter Musical\", a two act musical parody that featured major elements from all seven Harry Potter books and an original score.","release_date":"2009-04-09"}]}